{
    "products": [{
            "productName": "Tree 1"
        },
        {
            "productName": "Tree 2"
        },
        {
            "productName": "Tree 3"
        },
        {
            "productName": "Wreath 1"
        },
        {
            "productName": "Decor 2"
        },
        {
            "productName": "Wreath and Tree 3"
        }
    ]
}